<svg xmlns="http://www.w3.org/2000/svg">
    <g id="icon-1" fill-rule="evenodd" clip-rule="evenodd">
        <path d="M898.5 164c21.2-22.2 20.5-57.3-1.7-78.6s-57.3-20.5-78.6 1.7c-16.4 17.1-19.6 42-10 62.2l-10.3 10.8 6.2 6-72.7 76 16.2 15.5 72.7-76 6.2 6 10.3-10.8c20.6 8.6 45.3 4.3 61.7-12.8zm-69.5-7.7c-17-16.2-17.5-43.2-1.3-60.1 16.2-17 43.2-17.5 60.1-1.3 17 16.2 17.6 43.2 1.3 60.1s-43.2 17.5-60.1 1.3z"/>
        <path fill="#D1D3D4"
              d="M903.6 113.7s18.1-12 36.4-8.9c18.3 3.1 31.4 25.4 33.5 40.3 2.1 14.9-2.4 29.8-5.9 36-3.5 6.2-15.1 17.6-15.1 17.6s-4.4 25.4-9.8 36.7c-5.4 11.3-14.3 28.3-19.7 31.4-5.4 3.2-12.2 3.3-15.6 0-3.3-3.3-2.4-24.8-1.1-35.4 1.3-10.6 2.4-23.3-5.9-22.5-8.3.8-12.1 16.7-12.9 23.2-.8 6.5-6 34.9-14.3 36.5s-18.7-1.4-20-21-4-50.8-6.8-56.8c-2.9-6-14.4-24-14.1-41.9.3-17.9 7.9-33.3 18.1-40.5s18.4-7.3 27.8-7 21.4 9.5 25.4 12.3z"/>
        <path fill="#FFF"
              d="M912.8 120.4s14.3-8.3 30.2-2.4c15.9 5.9 20.3 26.7 19.8 37.8s-4.4 22.2-9.5 27.5-10 9.2-10 9.2-9.2 33.2-12.1 41c-2.9 7.8-14 31.1-16.8 25.9s5.4-39 2.1-48.4c-3.3-9.4-10.2-14.4-17.6-14s-14.1 7.3-17.6 17.6c-3.5 10.3-9.5 46.9-13 45.5-3.5-1.4-4.8-9.8-6.5-34.4s-1.7-31.3-5.4-40.3c-3.7-9-21.9-33.2-9.2-55.3 12.7-22.1 26.4-18.7 35.6-15.9s31.3 24.1 34 24.3c2.7.2 9-1.4 7.1-7-2.1-5.6-11.1-11.1-11.1-11.1z"/>
    </g>
</svg>